    </script>
    <script type="text/javascript">
        var nameSort = 0;
        var styleSort = 1;
        var dateSort = 2;
        var rateSort = 3;
        var commentSort = 4;
        
        var currentSort = -1;
        var reverseSort = false;
        var indicatorUp = true;
        
        function load()
        {
            createTable(nameSort);
            showStats();
        }
        
        function showStats()
        {
			document.getElementById("jsMessage").style.display = "none";
			document.getElementById("contentWrap").style.display = "block";        
        
        	document.getElementById("knurdName").innerHTML = fullname;
        	
            if(numBeers == 200)
                document.getElementById("finLabel").innerHTML = "Finish:";
            document.getElementById("numBeers").innerHTML = "<b>" + numBeers + "</b>";
            document.getElementById("progress").innerHTML = "<b>" + progress + "%</b>";
            document.getElementById("avgRating").innerHTML = "<b>" + avgRating + "</b>";
            document.getElementById("projFinish").innerHTML = "<b>" + projFinish + "</b>";
        }
        
        function createTable(sortOption)
        {
            var beerDiv = document.getElementById("beerWrap");
            while(beerDiv.hasChildNodes())
                beerDiv.innerHTML = "";
                
            sortBeers(sortOption);
            var beerTable = document.createElement("table");
            var commRow = getRow();
            var cell = makeCell("*Click headers to sort.");
            cell.colSpan = 6;
            cell.style.cssText = "font-size:8pt;text-align:right;";
            commRow.appendChild(cell);
            beerTable.appendChild(commRow);
            
            var headRow = getRow();
            headRow.appendChild(makeHCell("Name", nameSort));
            headRow.appendChild(makeHCell("Style", styleSort));
            headRow.appendChild(makeHCell("Date", dateSort));
            headRow.appendChild(makeHCell("Rating", rateSort));
            headRow.appendChild(makeHCell("Comments", commentSort));
            beerTable.appendChild(headRow);
            
            for(var i = 0; i < beers.length; i++)
            {
                var row = getRow();
                row.appendChild(makeCell("<b>" + beers[i].name + "</b>"));
                row.appendChild(makeCell(beers[i].style == undefined || beers[i].style == null ? "" : beers[i].style));
                row.appendChild(getDateCell(beers[i].dateConsumed));
                row.appendChild(getRatingCell(beers[i].memberRating == undefined || beers[i].memberRating == null ? 0 : beers[i].memberRating));
                row.appendChild(makeCell(beers[i].memberComments == undefined || beers[i].memberComments == null ? "" : beers[i].memberComments));
                if(i % 2 != 0)
                    row.className = "alt";
                beerTable.appendChild(row);
            }
            beerDiv.appendChild(beerTable);
        }
        
        function getDateCell(dateConsumed)
        {
        	var formattedDate = dateConsumed.substring(0, dateConsumed.indexOf(",") + 6);
        	return makeCell(formattedDate);
        }
        
        function getRatingCell(rating)
        {
            var c = 0;
            var n = 5;
            var stars = "<span>";
            while( rating > c)
            {
                stars += "&#9733;";
                c++;
            }
            stars += "</span><span class='r'>";
            while( c < 5)
            {
                stars += "&#9733;";
                c++;
            }
            stars += "</span>";
            var starCell = makeCell(stars);
            starCell.className="c";
            return starCell;
        }
        
        function sortBeers(sortOption)
        {
        	if(sortOption == currentSort)
        		reverseSort = !reverseSort;
        	else
        	{
        		currentSort = sortOption;
        		reverseSort = false;
        	}
        	
            if(sortOption == styleSort)
            {
            	indicatorUp = !reverseSort;
                beers.sort(function(a,b){return sortByStyle(a,b);});
            }
            else if(sortOption == dateSort)
            {
            	indicatorUp = !reverseSort;
            	beers.sort(function(a,b){return sortByDate(a,b);});
            }
            else if(sortOption == rateSort)
            {
            	indicatorUp = reverseSort;
                beers.sort(function(a,b){return sortByRating(a,b);});
            }
            else if (sortOption == commentSort)
            {
            	indicatorUp = !reverseSort;
                beers.sort(function(a,b){return sortByComment(a,b);});
            }
            else
            {
            	indicatorUp = !reverseSort;
                beers.sort(function(a,b){return sortByName(a,b);});
            }
        }
        
        function sortByName(a,b)
        {
            if(a.name.toLowerCase() > b.name.toLowerCase())
                return reverseSort ? -1 : 1;
            if(a.name.toLowerCase() < b.name.toLowerCase())
                return reverseSort ? 1 : -1;
            return 0;
        }
        
        function sortByStyle(a,b)
        {
            if((a.style == undefined || a.style == null) && (b.style == undefined || b.style == null))
                return sortByName(a,b);
            if(a.style == undefined || a.style == null)
                return reverseSort ? -1 : 1;
            if(b.style == undefined || b.style == null)
                return reverseSort ? 1 : -1;
            return a.style.toLowerCase() > b.style.toLowerCase() ? (reverseSort ? -1 : 1) : (a.style.toLowerCase() < b.style.toLowerCase() ? (reverseSort ? 1 : -1) : sortByName(a,b));
        }
        
        function sortByDate(a,b)
        {
        	var aDate = formatDateForSort(a.dateConsumed);
        	var bDate = formatDateForSort(b.dateConsumed);
        	
        	if(aDate > bDate)
        		return reverseSort ? -1 : 1;
        	if(aDate < bDate)
        		return reverseSort ? 1 : -1;
        	return sortByName(a,b);
        }
        function formatDateForSort(dateConsumed)
        {
        	var months = ["Jan", "Feb", "Mar", "Apr", "May", "Jun", "Jul", "Aug", "Sep", "Oct", "Nov", "Dec"];
        	
        	var year = dateConsumed.substring(dateConsumed.indexOf(",") + 2, dateConsumed.indexOf(",") + 6);
        	var month = -1;
        	var day = dateConsumed.substring(dateConsumed.indexOf(" ") + 1, dateConsumed.indexOf(","));
        	
        	var monthText = dateConsumed.substring(0, 3);
        	for(var i = 0; i < months.length; i++)
        	{
        		if(months[i] == monthText)
        		{
        			month = i + 1;
        			break;
        		}
        	}
        	
        	if(month < 10){month = "0" + month;}
        	if(day < 10){day = "0" + day;}
        	
        	return ("" + year + month + day);
        }
        
        function sortByRating(a,b)
        {
            if((a.memberRating == undefined || a.memberRating == null) && (b.memberRating == undefined || b.memberRating == null))
                return sortByName(a,b);
            if(a.memberRating == undefined || a.memberRating == null)
                return reverseSort ? -1 : 1;
            if(b.memberRating == undefined || b.memberRating == null)
                return reverseSort ? 1 : -1;
            return a.memberRating < b.memberRating ? (reverseSort ? -1 : 1) : (a.memberRating > b.memberRating ? (reverseSort ? 1 : -1) : sortByName(a,b));
        }
        
        function sortByComment(a,b)
        {
            if((a.memberComments == undefined || a.memberComments == null) && (b.memberComments == undefined || b.memberComments == null))
                return sortByName(a,b);
            if(a.memberComments == undefined || a.memberComments == null)
                return reverseSort ? -1 : 1;
            if(b.memberComments == undefined || b.memberComments == null)
                return reverseSort ? 1 : -1;
            return a.memberComments.toLowerCase() > b.memberComments.toLowerCase() ? (reverseSort ? 1 : -1) : (a.memberComments.toLowerCase() < b.memberComments.toLowerCase() ? (reverseSort ? -1 : 1) : sortByName(a,b));
        }
        
        function getRow()
        {
            return document.createElement("tr");
        }
        
        function makeCell(html)
        {
            var cell = document.createElement("td");
            cell.innerHTML = html;
            return cell;
        }
        
        function makeHCell(html, index)
        {
            var cell = document.createElement("th");
            cell.innerHTML = html + "<span class=\"sortIndicator\">" + (index == currentSort ? (indicatorUp ? "&#x25B4;" : "&#x25BE;") : "") + "</span>";
            if(index != undefined && index != null && index >= 0)
                cell.onclick = function(){createTable(index);};
            return cell;
        }
    </script>
</head>
<body onload="load();">
    <div id="jsMessage">
    	<b>Javascript must be enabled.</b><br/>
    	<b>Some email clients (including GMail) will not enable javascript for email attachments. Please download the attachment and then open it.</b>
    </div>
    <div id="contentWrap" style="display:none;">
	    <div id="knurdName"></div>
	    <div id="flyingSaucer">Beers at the Flying Saucer</div>
	    <table>
	        <tr><td style="padding-right:0;">Number of Beers:</td><td id="numBeers"></td><td style="padding-right:0;">Progress to 200:</td><td id="progress"></td></tr>
	        <tr><td style="padding-right:0;">Average Rating:</td><td id="avgRating"></td><td style="padding-right:0;" id="finLabel">Projected Finish:</td><td id="projFinish"></td></tr>
	    </table>
	    <div id="beerWrap"></div>
    </div>
</body>
</html>